%YAML 1.1
%TAG !u! tag:unity3d.com,2011:
--- !u!114 &11400000
MonoBehaviour:
  m_ObjectHideFlags: 0
  m_CorrespondingSourceObject: {fileID: 0}
  m_PrefabInstance: {fileID: 0}
  m_PrefabAsset: {fileID: 0}
  m_GameObject: {fileID: 0}
  m_Enabled: 1
  m_EditorHideFlags: 0
  m_Script: {fileID: 11500000, guid: 90ee4a28e7d48154f8b4fee05f40300e, type: 3}
  m_Name: SkinnedMeshToolsEditorConfig
  m_EditorClassIdentifier: 
  enabled: 1
  boneIndex: 1
  showBoneWeights: 1
  showBones: 1
  useAlphaForWeightColor: 1
  boneWeightColor: {r: 1, g: 0, b: 0, a: 0}
  enableEditing: 0
